UART/uart.vcd
$date
	Thu Jul  2 14:39:01 2026
$end
$version
	Icarus Verilog
$end
$timescale
	1ps
$end
$scope module uart_tb $end
$var wire 1 ! tx_done $end
$var wire 1 " tx_busy $end
$var wire 1 # tx $end
$var wire 1 $ rx_done $end
$var wire 8 % rx_data [7:0] $end
$var parameter 32 & CLKS_PER_BIT $end
$var reg 1 ' clk $end
$var reg 1 ( rst $end
$var reg 8 ) tx_data [7:0] $end
$var reg 1 * tx_start $end
$scope module RX $end
$var wire 1 ' clk $end
$var wire 1 ( rst $end
$var wire 1 # rx $end
$var parameter 32 + CLKS_PER_BIT $end
$var reg 3 , bit_index [2:0] $end
$var reg 5 - clk_count [4:0] $end
$var reg 8 . data_reg [7:0] $end
$var reg 8 / rx_data [7:0] $end
$var reg 1 $ rx_done $end
$var reg 3 0 state [2:0] $end
$upscope $end
$scope module TX $end
$var wire 1 ' clk $end
$var wire 1 ( rst $end
$var wire 8 1 tx_data [7:0] $end
$var wire 1 * tx_start $end
$var parameter 32 2 CLKS_PER_BIT $end
$var reg 3 3 bit_index [2:0] $end
$var reg 5 4 clk_count [4:0] $end
$var reg 8 5 data_reg [7:0] $end
$var reg 3 6 state [2:0] $end
$var reg 1 # tx $end
$var reg 1 " tx_busy $end
$var reg 1 ! tx_done $end
$upscope $end
$upscope $end
$enddefinitions $end
$comment Show the parameter values. $end
$dumpall
b1010 2
b1010 +
b1010 &
$end
#0
$dumpvars
b0 6
bx 5
b0 4
b0 3
bx 1
b0 0
bx /
bx .
bx -
bx ,
0*
bx )
1(
0'
bx %
0$
1#
0"
0!
$end
#5000
1'
#10000
0'
#15000
1'
#20000
0'
#25000
1'
#30000
0'
#35000
1'
#40000
0'
#45000
1'
#50000
0'
0(
#55000
b1 6
1"
b10100101 5
1*
b10100101 )
b10100101 1
1'
#60000
0'
#65000
b1 4
0#
0*
1'
#70000
0'
#75000
b10 4
b1 0
b0 -
1'
#80000
0'
#85000
b1 -
b11 4
1'
#90000
0'
#95000
b100 4
b10 -
1'
#100000
0'
#105000
b11 -
b101 4
1'
#110000
0'
#115000
b110 4
b100 -
1'
#120000
0'
#125000
b101 -
b111 4
1'
#130000
0'
#135000
b1000 4
b10 0
b0 ,
b0 -
1'
#140000
0'
#145000
b1 -
b1001 4
1'
#150000
0'
#155000
b10 6
b0 4
b10 -
1'
#160000
0'
#165000
b11 -
b1 4
1#
1'
#170000
0'
#175000
b10 4
b100 -
1'
#180000
0'
#185000
b101 -
b11 4
1'
#190000
0'
#195000
b100 4
b110 -
1'
#200000
0'
#205000
b111 -
b101 4
1'
#210000
0'
#215000
b110 4
b1000 -
1'
#220000
0'
#225000
b1001 -
b111 4
1'
#230000
0'
#235000
b1000 4
b1 ,
bx1 .
b0 -
1'
#240000
0'
#245000
b1 -
b1001 4
1'
#250000
0'
#255000
b1 3
b0 4
b10 -
1'
#260000
0'
#265000
b11 -
b1 4
0#
1'
#270000
0'
#275000
b10 4
b100 -
1'
#280000
0'
#285000
b101 -
b11 4
1'
#290000
0'
#295000
b100 4
b110 -
1'
#300000
0'
#305000
b111 -
b101 4
1'
#310000
0'
#315000
b110 4
b1000 -
1'
#320000
0'
#325000
b1001 -
b111 4
1'
#330000
0'
#335000
b1000 4
b10 ,
bx01 .
b0 -
1'
#340000
0'
#345000
b1 -
b1001 4
1'
#350000
0'
#355000
b10 3
b0 4
b10 -
1'
#360000
0'
#365000
b11 -
b1 4
1#
1'
#370000
0'
#375000
b10 4
b100 -
1'
#380000
0'
#385000
b101 -
b11 4
1'
#390000
0'
#395000
b100 4
b110 -
1'
#400000
0'
#405000
b111 -
b101 4
1'
#410000
0'
#415000
b110 4
b1000 -
1'
#420000
0'
#425000
b1001 -
b111 4
1'
#430000
0'
#435000
b1000 4
b11 ,
bx101 .
b0 -
1'
#440000
0'
#445000
b1 -
b1001 4
1'
#450000
0'
#455000
b11 3
b0 4
b10 -
1'
#460000
0'
#465000
b11 -
b1 4
0#
1'
#470000
0'
#475000
b10 4
b100 -
1'
#480000
0'
#485000
b101 -
b11 4
1'
#490000
0'
#495000
b100 4
b110 -
1'
#500000
0'
#505000
b111 -
b101 4
1'
#510000
0'
#515000
b110 4
b1000 -
1'
#520000
0'
#525000
b1001 -
b111 4
1'
#530000
0'
#535000
b1000 4
b100 ,
bx0101 .
b0 -
1'
#540000
0'
#545000
b1 -
b1001 4
1'
#550000
0'
#555000
b100 3
b0 4
b10 -
1'
#560000
0'
#565000
b11 -
b1 4
1'
#570000
0'
#575000
b10 4
b100 -
1'
#580000
0'
#585000
b101 -
b11 4
1'
#590000
0'
#595000
b100 4
b110 -
1'
#600000
0'
#605000
b111 -
b101 4
1'
#610000
0'
#615000
b110 4
b1000 -
1'
#620000
0'
#625000
b1001 -
b111 4
1'
#630000
0'
#635000
b1000 4
b101 ,
bx00101 .
b0 -
1'
#640000
0'
#645000
b1 -
b1001 4
1'
#650000
0'
#655000
b101 3
b0 4
b10 -
1'
#660000
0'
#665000
b11 -
b1 4
1#
1'
#670000
0'
#675000
b10 4
b100 -
1'
#680000
0'
#685000
b101 -
b11 4
1'
#690000
0'
#695000
b100 4
b110 -
1'
#700000
0'
#705000
b111 -
b101 4
1'
#710000
0'
#715000
b110 4
b1000 -
1'
#720000
0'
#725000
b1001 -
b111 4
1'
#730000
0'
#735000
b1000 4
b110 ,
bx100101 .
b0 -
1'
#740000
0'
#745000
b1 -
b1001 4
1'
#750000
0'
#755000
b110 3
b0 4
b10 -
1'
#760000
0'
#765000
b11 -
b1 4
0#
1'
#770000
0'
#775000
b10 4
b100 -
1'
#780000
0'
#785000
b101 -
b11 4
1'
#790000
0'
#795000
b100 4
b110 -
1'
#800000
0'
#805000
b111 -
b101 4
1'
#810000
0'
#815000
b110 4
b1000 -
1'
#820000
0'
#825000
b1001 -
b111 4
1'
#830000
0'
#835000
b1000 4
b111 ,
bx0100101 .
b0 -
1'
#840000
0'
#845000
b1 -
b1001 4
1'
#850000
0'
#855000
b111 3
b0 4
b10 -
1'
#860000
0'
#865000
b11 -
b1 4
1#
1'
#870000
0'
#875000
b10 4
b100 -
1'
#880000
0'
#885000
b101 -
b11 4
1'
#890000
0'
#895000
b100 4
b110 -
1'
#900000
0'
#905000
b111 -
b101 4
1'
#910000
0'
#915000
b110 4
b1000 -
1'
#920000
0'
#925000
b1001 -
b111 4
1'
#930000
0'
#935000
b1000 4
b11 0
b10100101 .
b0 -
1'
#940000
0'
#945000
b1 -
b1001 4
1'
#950000
0'
#955000
b11 6
b0 4
b10 -
1'
#960000
0'
#965000
b11 -
b1 4
1'
#970000
0'
#975000
b10 4
b100 -
1'
#980000
0'
#985000
b101 -
b11 4
1'
#990000
0'
#995000
b100 4
b110 -
1'
#1000000
0'
#1005000
b111 -
b101 4
1'
#1010000
0'
#1015000
b110 4
b1000 -
1'
#1020000
0'
#1025000
b1001 -
b111 4
1'
#1030000
0'
#1035000
b1000 4
b100 0
b0 -
1$
b10100101 %
b10100101 /
1'
#1040000
0'
#1045000
b0 0
0$
b1001 4
1'
#1050000
0'
#1055000
b100 6
0"
1!
b0 4
1'
#1060000
0'
#1065000
b0 6
0!
1'
